[gd_scene load_steps=4 format=3 uid="uid://cpvbmspnl13ii"]

[ext_resource type="PackedScene" uid="uid://cgcsiip3f3x7j" path="res://objects/panel.tscn" id="1_ekujq"]

[sub_resource type="PhysicsMaterial" id="PhysicsMaterial_06rr8"]
friction = 0.51

[sub_resource type="BoxShape3D" id="BoxShape3D_tcjlk"]

[node name="Block" type="StaticBody3D"]
collision_layer = 4
collision_mask = 2
physics_material_override = SubResource("PhysicsMaterial_06rr8")

[node name="CollisionShape3D" type="CollisionShape3D" parent="."]
shape = SubResource("BoxShape3D_tcjlk")

[node name="Panel" parent="." instance=ExtResource("1_ekujq")]
transform = Transform3D(1, 0, 0, 0, 1, 0, 0, 0, 1, 0, 0, 0.5)

[node name="Panel2" parent="." instance=ExtResource("1_ekujq")]
transform = Transform3D(-4.37114e-08, 0, 1, 0, 1, 0, -1, 0, -4.37114e-08, 0.5, 0, 0)

[node name="Panel3" parent="." instance=ExtResource("1_ekujq")]
transform = Transform3D(-1, 0, -8.74228e-08, 0, 1, 0, 8.74228e-08, 0, -1, 0, 0, -0.5)

[node name="Panel4" parent="." instance=ExtResource("1_ekujq")]
transform = Transform3D(-4.37114e-08, 0, -1, 0, 1, 0, 1, 0, -4.37114e-08, -0.5, 0, 0)

[node name="Panel5" parent="." instance=ExtResource("1_ekujq")]
transform = Transform3D(1, 0, 0, 0, -4.37114e-08, 1, 0, -1, -4.37114e-08, 0, 0.5, 0)

[node name="Panel6" parent="." instance=ExtResource("1_ekujq")]
transform = Transform3D(1, 0, 0, 0, -4.37114e-08, -1, 0, 1, -4.37114e-08, 0, -0.5, 0)
