[gd_resource type="Theme" load_steps=8 format=3 uid="uid://cajus30kn6x1k"]

[ext_resource type="FontFile" uid="uid://dw4jdhjyjb1km" path="res://resources/Berry Rotunda.ttf" id="1_anv5w"]

[sub_resource type="StyleBoxFlat" id="StyleBoxFlat_jajm4"]
bg_color = Color(0.11932, 0.0722, 0.19, 1)

[sub_resource type="StyleBoxFlat" id="StyleBoxFlat_medt6"]
bg_color = Color(0.11932, 0.0722, 0.19, 1)
draw_center = false
border_width_left = 3
border_width_top = 3
border_width_right = 3
border_width_bottom = 3
border_color = Color(0.305882, 0.486275, 0.760784, 1)

[sub_resource type="StyleBoxFlat" id="StyleBoxFlat_alnfu"]
bg_color = Color(0.11932, 0.0722, 0.19, 1)
border_width_left = 3
border_width_top = 3
border_width_right = 3
border_width_bottom = 3
border_color = Color(0.305882, 0.486275, 0.760784, 1)

[sub_resource type="StyleBoxFlat" id="StyleBoxFlat_sypjj"]
bg_color = Color(0.11932, 0.0722, 0.19, 1)

[sub_resource type="StyleBoxFlat" id="StyleBoxFlat_kg1g6"]
bg_color = Color(0.304, 0.4864, 0.76, 1)

[sub_resource type="StyleBoxFlat" id="StyleBoxFlat_07ee2"]
bg_color = Color(0.133333, 0, 0.333333, 1)
border_width_left = 5
border_width_top = 5
border_width_right = 5
border_width_bottom = 5
border_color = Color(0.631373, 0.470588, 0.870588, 1)
border_blend = true
corner_radius_top_left = 30
corner_radius_top_right = 30
corner_radius_bottom_right = 30
corner_radius_bottom_left = 30
shadow_color = Color(0, 0, 0, 0.580392)
shadow_size = 2
shadow_offset = Vector2(4, 4)

[resource]
default_font = ExtResource("1_anv5w")
default_font_size = 24
Button/colors/font_pressed_color = Color(0, 0, 0, 1)
Button/font_sizes/font_size = 48
Button/styles/disabled = SubResource("StyleBoxFlat_jajm4")
Button/styles/focus = SubResource("StyleBoxFlat_medt6")
Button/styles/hover = SubResource("StyleBoxFlat_alnfu")
Button/styles/normal = SubResource("StyleBoxFlat_sypjj")
Button/styles/pressed = SubResource("StyleBoxFlat_kg1g6")
MarginContainer/constants/margin_bottom = 30
MarginContainer/constants/margin_left = 30
MarginContainer/constants/margin_right = 30
MarginContainer/constants/margin_top = 30
PanelContainer/styles/panel = SubResource("StyleBoxFlat_07ee2")
